/* XPM */
static char *workspacebuttonbg[] = {
/* columns rows colors chars-per-pixel */
"10 10 1 1 ",
"  c #3E3E3E",
/* pixels */
"          ",
"          ",
"          ",
"          ",
"          ",
"          ",
"          ",
"          ",
"          ",
"          "
};
